a:4:{s:8:"template";s:22:"spark-multipurpose-pro";s:4:"mods";a:16:{i:0;b:0;s:12:"primary_menu";s:8:"lUpdated";s:18:"nav_menu_locations";a:1:{s:6:"menu-1";i:3;}s:18:"custom_css_post_id";i:78;s:32:"spark_multipurpose_primary_color";s:7:"#ff7400";s:33:"spark_multipurpose_footer_content";i:599;s:36:"spark_multipurpose_top_header_enable";s:8:"disabled";s:32:"spark_multipurpose_header_layout";s:10:"layout_two";s:43:"spark_multipurpose_header_nav_wrap_bg_color";s:17:"rgba(61,18,148,1)";s:36:"spark_multipurpose_header_item_group";s:699:"{"bg_color":"","color":"#ffffff","padding":{"desktop":{"top":"","right":"","bottom":"","left":"","cssbox_link":1},"tablet":{"top":"","right":"","bottom":"","left":"","cssbox_link":""},"mobile":{"top":"","right":"","bottom":"","left":"","cssbox_link":""}},"margin":{"desktop":{"top":"","right":"","bottom":"","left":"","cssbox_link":""},"tablet":{"top":"","right":"","bottom":"","left":"","cssbox_link":""},"mobile":{"top":"","right":"","bottom":"","left":"","cssbox_link":""}},"radius":{"desktop":{"top":"","right":"","bottom":"","left":"","cssbox_link":""},"tablet":{"top":"","right":"","bottom":"","left":"","cssbox_link":""},"mobile":{"top":"","right":"","bottom":"","left":"","cssbox_link":""}}}";s:40:"spark_multipurpose_header_margin_padding";s:663:"{"margin":{"desktop":{"top":"","right":"","bottom":"","left":"","cssbox_link":""},"tablet":{"top":"","right":"","bottom":"","left":"","cssbox_link":""},"mobile":{"top":"","right":"","bottom":"","left":"","cssbox_link":""}},"padding":{"desktop":{"top":0,"right":0,"bottom":0,"left":0,"cssbox_link":1},"tablet":{"top":"","right":"","bottom":"","left":"","cssbox_link":""},"mobile":{"top":"","right":"","bottom":"","left":"","cssbox_link":""}},"radius":{"desktop":{"top":"","right":"","bottom":"","left":"","cssbox_link":""},"tablet":{"top":"","right":"","bottom":"","left":"","cssbox_link":""},"mobile":{"top":"","right":"","bottom":"","left":"","cssbox_link":""}}}";s:32:"spark_multipurpose_search_layout";s:10:"layout_two";s:11:"custom_logo";i:710;s:16:"header_textcolor";s:5:"blank";s:29:"spark_multipurpose_logo_width";s:2:"80";s:39:"spark_multipurpose_header_button_enable";s:8:"disabled";}s:7:"options";a:2:{s:9:"site_icon";s:1:"0";s:23:"nav_menus_created_posts";a:0:{}}s:6:"wp_css";s:728:".flying-rocket{
	animation:rocket 0.2s linear infinite;
}
@keyframes rocket{
 0%,100%{
  transform:translate(0px,0px) rotate(0deg);
 }
 50%{
  transform:translate(0px,3px) rotate(0deg);
 }

}
body{
	    --wp--preset--color--primary: #ff7400!important;
}
.tab-content {
    display: none !important;
    padding: 20px;
  }
  
.tab-content.active {
    display: block !important;
	transition:0.5s ease-in;
  }
.tab-link:hover{
	cursor:pointer;
}
.wp-block-social-links:not(.is-style-logos-only) .wp-social-link {
    background-color: #fff !important;
    color: #fff;
}
.wp-block-social-link-anchor{
color:#000 !important;
}
.wpcf7 input[type="submit"], .wpcf7 input[type="button"] {
	margin:14px;
}
.nav-menu{
	padding:14px 0;
}";}